{
  "date": {
    "create": "2018-01-11 21:45",
    "update": "2019-01-03 22:30"
  },
  "author": {
    "mb": "Michael Becker"
  },
  "meta": {
    "description": "The console and CLI mode of Flood\\Canal explained, with examples.",
    "lang": "en"
  },
  "label": "Flood\\Canal: Console/CLI Mode"
}