{
  "date": {
    "create": "2018-02-26 20:00",
    "update": "2018-02-26 20:00"
  },
  "author": {
    "mb": "Michael Becker"
  },
  "hidden": true,
  "meta": {
    "description": "",
    "lang": "en"
  },
  "label": "Flood\\Hydro: Documentation Index"
}