{
  "date": {
    "create": "2018-01-09 23:30",
    "update": "2018-01-09 23:30"
  },
  "author": {
    "mb": "Michael Becker"
  },
  "meta": {
    "description": "",
    "lang": "en"
  },
  "label": "Flood\\Hydro: Setup and run a project"
}