{
  "date": {
    "create": "2018-03-08 21:00",
    "update": "2018-05-19 18:30"
  },
  "author": {
    "mb": "Michael Becker"
  },
  "meta": {
    "description": "Guide and examples for the Sass frontend framework FormantaSass - core",
    "lang": "en"
  },
  "label": "FormantaSass - Core: Examples and Guide"
}