{
  "date": {
    "create": "2017-07-28 12:30",
    "update": "2017-12-09 09:30"
  },
  "author": {
    "mb": "Michael Becker"
  },
  "meta": {
    "description": "Development ready Grunt example with a GruntFile boilerplate, just insert your path variables, install the tools and hit grunt build.",
    "lang": "en"
  },
  "sendHeader": [
  ],
  "label": "Grunt: Quick Start with a Boilerplate"
}