{
  "date": {
    "create": "2018-02-15 20:15",
    "update": "2018-02-15 20:15"
  },
  "author": {
    "mb": "Michael Becker"
  },
  "meta": {
    "description": "Update and configure PHP on macOS for your local development environment.",
    "lang": "en"
  },
  "label": "Unix: PHP on macOS for dev - update and setup"
}